<svg xmlns="http://www.w3.org/2000/svg" width="32" height="32" viewBox="0 0 32 32">
  <path fill="#000000" fill-rule="evenodd" d="M21.836,1.352 L24.906,4.441 C25.139,4.678 25.258,4.957 25.258,5.281 C25.258,5.604 25.139,5.883 24.906,6.121 L15.024,16 L24.906,25.88 C25.139,26.118 25.258,26.397 25.258,26.72 C25.258,27.043 25.139,27.323 24.906,27.56 L21.836,30.649 C21.599,30.882 21.319,31 20.988,31 C20.661,31 20.379,30.882 20.142,30.649 L6.353,16.84 C6.117,16.603 6,16.324 6,16 C6,15.677 6.117,15.398 6.353,15.161 L20.142,1.352 C20.379,1.119 20.661,1 20.988,1 C21.319,1 21.599,1.119 21.836,1.352"/>
</svg>
