<svg xmlns="http://www.w3.org/2000/svg" width="32" height="32" viewBox="0 0 32 32">
  <path fill="#000000" fill-rule="evenodd" d="M27.462,17.868 L30.706,20.391 C31.042,20.632 31.09,20.968 30.85,21.4 L27.75,26.735 C27.558,27.071 27.245,27.167 26.813,27.023 L22.992,25.511 C21.983,26.231 21.118,26.735 20.398,27.023 L19.82,31.06 C19.725,31.492 19.484,31.709 19.1,31.709 L12.9,31.709 C12.516,31.709 12.275,31.492 12.18,31.06 L11.603,27.023 C10.69,26.639 9.824,26.134 9.008,25.511 L5.188,27.023 C4.755,27.169 4.442,27.071 4.25,26.735 L1.15,21.4 C0.91,20.968 0.958,20.632 1.294,20.391 L4.538,17.868 C4.49,17.532 4.466,17.027 4.466,16.354 C4.466,15.681 4.49,15.177 4.538,14.841 L1.294,12.318 C0.958,12.077 0.91,11.743 1.15,11.308 L4.25,5.974 C4.442,5.638 4.755,5.541 5.188,5.685 L9.008,7.198 C10.014,6.477 10.882,5.974 11.603,5.685 L12.18,1.649 C12.275,1.216 12.516,1 12.9,1 L19.1,1 C19.484,1 19.725,1.216 19.82,1.649 L20.398,5.685 C21.311,6.07 22.176,6.575 22.992,7.198 L26.813,5.685 C27.245,5.54 27.558,5.638 27.75,5.974 L30.85,11.308 C31.09,11.743 31.042,12.077 30.706,12.318 L27.462,14.841 C27.51,15.177 27.534,15.681 27.534,16.354 C27.534,17.027 27.51,17.532 27.462,17.868 M16,21.761 C17.49,21.761 18.764,21.232 19.82,20.175 C20.878,19.119 21.406,17.846 21.406,16.356 C21.406,14.866 20.878,13.593 19.82,12.537 C18.764,11.479 17.49,10.951 16,10.951 C14.51,10.951 13.236,11.479 12.18,12.537 C11.122,13.593 10.594,14.866 10.594,16.356 C10.594,17.846 11.122,19.119 12.18,20.175 C13.236,21.232 14.51,21.761 16,21.761"/>
</svg>
