<svg xmlns="http://www.w3.org/2000/svg" width="32" height="32" viewBox="0 0 32 32">
  <path fill="#000000" fill-rule="evenodd" d="M16,1 C7.716,1 1,7.715 1,16 C1,22.354 4.953,27.784 10.533,29.967 C10.402,28.781 10.283,26.961 10.586,25.665 C10.858,24.495 12.344,18.208 12.344,18.208 C12.344,18.208 11.895,17.311 11.895,15.982 C11.895,13.896 13.104,12.339 14.608,12.339 C15.889,12.339 16.506,13.3 16.506,14.452 C16.506,15.74 15.687,17.663 15.264,19.447 C14.91,20.941 16.013,22.159 17.485,22.159 C20.151,22.159 22.2,19.346 22.2,15.289 C22.2,11.697 19.62,9.186 15.936,9.186 C11.668,9.186 9.162,12.388 9.162,15.695 C9.162,16.984 9.659,18.368 10.278,19.119 C10.4,19.267 10.419,19.397 10.383,19.549 C10.269,20.023 10.016,21.042 9.967,21.25 C9.9,21.525 9.749,21.583 9.465,21.452 C7.592,20.578 6.42,17.838 6.42,15.64 C6.42,10.908 9.857,6.563 16.331,6.563 C21.533,6.563 25.578,10.271 25.578,15.227 C25.578,20.397 22.319,24.557 17.795,24.557 C16.275,24.557 14.847,23.768 14.357,22.833 C14.357,22.833 13.605,25.698 13.423,26.399 C13.085,27.703 12.17,29.336 11.558,30.333 C12.961,30.766 14.453,31 16,31 C24.283,31 31,24.286 31,16.001 C31,7.716 24.284,1.001 16,1.001 L16,1 Z"/>
</svg>
