<svg xmlns="http://www.w3.org/2000/svg" width="32" height="32" viewBox="0 0 32 32">
  <path fill="#000000" fill-rule="evenodd" d="M27.601,3.4 L19.8,3.4 C19.8,3.4 19.263,1 18.601,1 L13.8,1 C13.137,1 12.601,3.4 12.601,3.4 L4.8,3.4 C3.806,3.4 3,4.205 3,5.2 L3,7 L29.401,7 L29.401,5.2 C29.401,4.205 28.594,3.4 27.601,3.4 L27.601,3.4 Z M10.201,27.401 L12.601,27.401 L12.601,11.8 L10.201,11.8 L10.201,27.401 Z M15,27.401 L17.4,27.401 L17.4,11.8 L15,11.8 L15,27.401 Z M19.8,27.401 L22.2,27.401 L22.2,11.8 L19.8,11.8 L19.8,27.401 Z M6.601,27.4 C6.601,29.388 8.212,31 10.201,31 L22.201,31 C24.188,31 25.8,29.388 25.8,27.4 L28.201,8.2 L4.201,8.2 L6.601,27.4 Z"/>
</svg>
