<svg xmlns="http://www.w3.org/2000/svg" width="32" height="32" viewBox="0 0 32 32">
  <path fill="#000000" fill-rule="evenodd" d="M25.911,25.833 C25.911,25.833 19.629,24.216 18.927,23.513 C18.433,23.02 18.341,22.118 18.326,21.881 C20.24,20.997 22.178,19.15 22.494,16.962 C22.494,16.962 23.79,16.744 23.945,15.348 C24.039,14.505 23.793,13.922 23.163,13.922 L23.166,8.576 C23.664,8.211 23.711,7.602 23.711,7.602 C23.711,6.158 22.5,5.239 21.055,5.239 C20.814,5.239 20.582,5.327 20.361,5.387 C20.322,3.771 18.355,2 15.361,2 L15.086,2 L14.878,2 L14.342,2 C10.852,2 7.773,3.863 7.773,3.863 C7.773,3.863 7.964,6.172 9.763,6.909 C9.763,6.909 8.498,7.577 8.498,9.452 L8.498,13.952 C8.498,13.952 7.94,14.391 7.94,15.218 C7.94,16.774 9.447,17.006 9.447,17.006 C9.748,19.159 11.691,20.958 13.641,21.846 C13.633,22.007 13.586,22.991 13.062,23.513 C12.361,24.216 6.083,25.833 6.083,25.833 C3.437,26.631 1,27.732 1,29.563 L1,30.5 L31,30.5 L31,29.563 C31,27.732 28.559,26.631 25.911,25.833"/>
</svg>
